{
  "appId": "com.smarttimeapps.SmartTimeMobile5Cap",
  "appName": "SmartTimeMobile",
  "bundledWebRuntime": false,
  "npmClient": "npm",
  "webDir": "www",
  "cordova": {
    "preferences": {
      "DisallowOverscroll": "true",
      "android-minSdkVersion": "14",
      "StatusBarBackgroundColor": "#ffffff"
    }
  },
  "plugins": {
    "Keyboard": {
        "resize": "none"
    }
  }
}
